%YAML 1.1
%TAG !u! tag:unity3d.com,2011:
--- !u!74 &7400000
AnimationClip:
  m_ObjectHideFlags: 0
  m_CorrespondingSourceObject: {fileID: 0}
  m_PrefabInstance: {fileID: 0}
  m_PrefabAsset: {fileID: 0}
  m_Name: Fondo
  serializedVersion: 6
  m_Legacy: 0
  m_Compressed: 0
  m_UseHighQualityCurve: 1
  m_RotationCurves: []
  m_CompressedRotationCurves: []
  m_EulerCurves: []
  m_PositionCurves: []
  m_ScaleCurves: []
  m_FloatCurves: []
  m_PPtrCurves:
  - curve:
    - time: 0
      value: {fileID: 21300000, guid: 5f43bfb3f69dd1342b8cf77799d5626e, type: 3}
    - time: 0.05
      value: {fileID: 21300000, guid: 05dfc87921d6cb440b19bc497eeddfb3, type: 3}
    - time: 0.1
      value: {fileID: 21300000, guid: db55e0758f9d38f4f9cd416ce7e3b64f, type: 3}
    - time: 0.15
      value: {fileID: 21300000, guid: 24c83a1d062afbf42a032adb6a39a731, type: 3}
    - time: 0.2
      value: {fileID: 21300000, guid: 70906f260d536184db223ff19b8aa51a, type: 3}
    - time: 0.25
      value: {fileID: 21300000, guid: 7545c70190058dc49a39c2a2e1f8b54e, type: 3}
    - time: 0.3
      value: {fileID: 21300000, guid: 85dc33272e3a58d41ab4d99e93c3fadf, type: 3}
    - time: 0.35
      value: {fileID: 21300000, guid: f60e97ad33b1e3c4cacb06517e314b21, type: 3}
    - time: 0.4
      value: {fileID: 21300000, guid: 9ba65466e6c8bed40882be7e9892721a, type: 3}
    - time: 0.45
      value: {fileID: 21300000, guid: 497e18622d9faee4a8cb7061ccf78422, type: 3}
    - time: 0.5
      value: {fileID: 21300000, guid: 82a13dd6854edcb428dcde2f00bc250c, type: 3}
    - time: 0.55
      value: {fileID: 21300000, guid: 22092a583ee76e64ca8e5ab7ddf082a3, type: 3}
    - time: 0.6
      value: {fileID: 21300000, guid: f6265397a15a6d948ac8114c337bb045, type: 3}
    - time: 0.65
      value: {fileID: 21300000, guid: 1a6ab8ba7ea606a459ece9afdb922a43, type: 3}
    - time: 0.7
      value: {fileID: 21300000, guid: 5cabc25a36260b043aeb9aab4b1a9d51, type: 3}
    - time: 0.75
      value: {fileID: 21300000, guid: 7a9f412bd7e0682479588bd8708060c5, type: 3}
    - time: 0.8
      value: {fileID: 21300000, guid: 30710c2d525b4d449b9cce54dfa5cb57, type: 3}
    - time: 0.85
      value: {fileID: 21300000, guid: 9c43a9e992fbfb34e875d996e647aa25, type: 3}
    - time: 0.9
      value: {fileID: 21300000, guid: aa10eff8aaa4dcb459d6764272d8cd55, type: 3}
    - time: 0.95
      value: {fileID: 21300000, guid: 1a7ff6393a0d29747babaf83c3e48835, type: 3}
    - time: 1
      value: {fileID: 21300000, guid: a0a158b40b40a584ca8f7a4e14e260ff, type: 3}
    - time: 1.05
      value: {fileID: 21300000, guid: 302640af307041a48ad7a9c36dbcbda6, type: 3}
    - time: 1.1
      value: {fileID: 21300000, guid: c7f22ba1b4299c14d948772b0ab06e7d, type: 3}
    - time: 1.15
      value: {fileID: 21300000, guid: d1bcebde405f8b445a6154e9fbadf032, type: 3}
    - time: 1.2
      value: {fileID: 21300000, guid: 775adccdb3e03c64189b9e5bcafbc33a, type: 3}
    - time: 1.25
      value: {fileID: 21300000, guid: 08a548bfa12d27648bb3445334e9bb9e, type: 3}
    - time: 1.3
      value: {fileID: 21300000, guid: 12906858f111e774488814e85d85934e, type: 3}
    - time: 1.35
      value: {fileID: 21300000, guid: fdeef34ca8466a342bfeaf4048336e9f, type: 3}
    - time: 1.4
      value: {fileID: 21300000, guid: 012330b969339174490262e39eee12c2, type: 3}
    - time: 1.45
      value: {fileID: 21300000, guid: 1f2f07785d008b847a3ee71a0d9afd48, type: 3}
    - time: 1.5
      value: {fileID: 21300000, guid: e0304312f0e3728438b32e84f273fa9c, type: 3}
    - time: 1.55
      value: {fileID: 21300000, guid: 5845ff6559fede442be3a2c4f5cf644e, type: 3}
    - time: 1.6
      value: {fileID: 21300000, guid: 4f79af693cfa92346905134bb2e88478, type: 3}
    - time: 1.65
      value: {fileID: 21300000, guid: 8f71ce8ac6d6cf64c8660025476c3ba0, type: 3}
    - time: 1.7
      value: {fileID: 21300000, guid: 769e4f71235919c4c8b28fa6fae13e73, type: 3}
    - time: 1.75
      value: {fileID: 21300000, guid: 764e85eba1c218345ac6cca97377be92, type: 3}
    - time: 1.8
      value: {fileID: 21300000, guid: fd8048eb33393bd4dae17b3bdab13410, type: 3}
    - time: 1.85
      value: {fileID: 21300000, guid: b4ff4c104cc31e14bbf8fcc015712016, type: 3}
    - time: 1.9
      value: {fileID: 21300000, guid: 5d238a7121f2ae647b42e56ef6a5be79, type: 3}
    - time: 1.95
      value: {fileID: 21300000, guid: 1d5d568e022caed4c8cd573e0e55eea1, type: 3}
    - time: 2
      value: {fileID: 21300000, guid: 4f4483897a5379a4780665e88b1a3547, type: 3}
    - time: 2.05
      value: {fileID: 21300000, guid: d56ef1b8545a0b146951c6f5330bf60c, type: 3}
    - time: 2.1
      value: {fileID: 21300000, guid: 079c7cadaa5a32049bf8a32a8f1a6846, type: 3}
    - time: 2.15
      value: {fileID: 21300000, guid: 5ba14bf425bc11842b40256ad336a997, type: 3}
    - time: 2.2
      value: {fileID: 21300000, guid: 07ec88b8581066c48a8dd589658f39a5, type: 3}
    - time: 2.25
      value: {fileID: 21300000, guid: 9add9b9d8c37db145a1cebb5cef7ee35, type: 3}
    - time: 2.3
      value: {fileID: 21300000, guid: f994abcd2b91aa24db9133716e0d19fa, type: 3}
    - time: 2.35
      value: {fileID: 21300000, guid: 56c684de0c14ca14b83782fd2e6306d9, type: 3}
    attribute: m_Sprite
    path: 
    classID: 212
    script: {fileID: 0}
  m_SampleRate: 20
  m_WrapMode: 0
  m_Bounds:
    m_Center: {x: 0, y: 0, z: 0}
    m_Extent: {x: 0, y: 0, z: 0}
  m_ClipBindingConstant:
    genericBindings:
    - serializedVersion: 2
      path: 0
      attribute: 0
      script: {fileID: 0}
      typeID: 212
      customType: 23
      isPPtrCurve: 1
    pptrCurveMapping:
    - {fileID: 21300000, guid: 5f43bfb3f69dd1342b8cf77799d5626e, type: 3}
    - {fileID: 21300000, guid: 05dfc87921d6cb440b19bc497eeddfb3, type: 3}
    - {fileID: 21300000, guid: db55e0758f9d38f4f9cd416ce7e3b64f, type: 3}
    - {fileID: 21300000, guid: 24c83a1d062afbf42a032adb6a39a731, type: 3}
    - {fileID: 21300000, guid: 70906f260d536184db223ff19b8aa51a, type: 3}
    - {fileID: 21300000, guid: 7545c70190058dc49a39c2a2e1f8b54e, type: 3}
    - {fileID: 21300000, guid: 85dc33272e3a58d41ab4d99e93c3fadf, type: 3}
    - {fileID: 21300000, guid: f60e97ad33b1e3c4cacb06517e314b21, type: 3}
    - {fileID: 21300000, guid: 9ba65466e6c8bed40882be7e9892721a, type: 3}
    - {fileID: 21300000, guid: 497e18622d9faee4a8cb7061ccf78422, type: 3}
    - {fileID: 21300000, guid: 82a13dd6854edcb428dcde2f00bc250c, type: 3}
    - {fileID: 21300000, guid: 22092a583ee76e64ca8e5ab7ddf082a3, type: 3}
    - {fileID: 21300000, guid: f6265397a15a6d948ac8114c337bb045, type: 3}
    - {fileID: 21300000, guid: 1a6ab8ba7ea606a459ece9afdb922a43, type: 3}
    - {fileID: 21300000, guid: 5cabc25a36260b043aeb9aab4b1a9d51, type: 3}
    - {fileID: 21300000, guid: 7a9f412bd7e0682479588bd8708060c5, type: 3}
    - {fileID: 21300000, guid: 30710c2d525b4d449b9cce54dfa5cb57, type: 3}
    - {fileID: 21300000, guid: 9c43a9e992fbfb34e875d996e647aa25, type: 3}
    - {fileID: 21300000, guid: aa10eff8aaa4dcb459d6764272d8cd55, type: 3}
    - {fileID: 21300000, guid: 1a7ff6393a0d29747babaf83c3e48835, type: 3}
    - {fileID: 21300000, guid: a0a158b40b40a584ca8f7a4e14e260ff, type: 3}
    - {fileID: 21300000, guid: 302640af307041a48ad7a9c36dbcbda6, type: 3}
    - {fileID: 21300000, guid: c7f22ba1b4299c14d948772b0ab06e7d, type: 3}
    - {fileID: 21300000, guid: d1bcebde405f8b445a6154e9fbadf032, type: 3}
    - {fileID: 21300000, guid: 775adccdb3e03c64189b9e5bcafbc33a, type: 3}
    - {fileID: 21300000, guid: 08a548bfa12d27648bb3445334e9bb9e, type: 3}
    - {fileID: 21300000, guid: 12906858f111e774488814e85d85934e, type: 3}
    - {fileID: 21300000, guid: fdeef34ca8466a342bfeaf4048336e9f, type: 3}
    - {fileID: 21300000, guid: 012330b969339174490262e39eee12c2, type: 3}
    - {fileID: 21300000, guid: 1f2f07785d008b847a3ee71a0d9afd48, type: 3}
    - {fileID: 21300000, guid: e0304312f0e3728438b32e84f273fa9c, type: 3}
    - {fileID: 21300000, guid: 5845ff6559fede442be3a2c4f5cf644e, type: 3}
    - {fileID: 21300000, guid: 4f79af693cfa92346905134bb2e88478, type: 3}
    - {fileID: 21300000, guid: 8f71ce8ac6d6cf64c8660025476c3ba0, type: 3}
    - {fileID: 21300000, guid: 769e4f71235919c4c8b28fa6fae13e73, type: 3}
    - {fileID: 21300000, guid: 764e85eba1c218345ac6cca97377be92, type: 3}
    - {fileID: 21300000, guid: fd8048eb33393bd4dae17b3bdab13410, type: 3}
    - {fileID: 21300000, guid: b4ff4c104cc31e14bbf8fcc015712016, type: 3}
    - {fileID: 21300000, guid: 5d238a7121f2ae647b42e56ef6a5be79, type: 3}
    - {fileID: 21300000, guid: 1d5d568e022caed4c8cd573e0e55eea1, type: 3}
    - {fileID: 21300000, guid: 4f4483897a5379a4780665e88b1a3547, type: 3}
    - {fileID: 21300000, guid: d56ef1b8545a0b146951c6f5330bf60c, type: 3}
    - {fileID: 21300000, guid: 079c7cadaa5a32049bf8a32a8f1a6846, type: 3}
    - {fileID: 21300000, guid: 5ba14bf425bc11842b40256ad336a997, type: 3}
    - {fileID: 21300000, guid: 07ec88b8581066c48a8dd589658f39a5, type: 3}
    - {fileID: 21300000, guid: 9add9b9d8c37db145a1cebb5cef7ee35, type: 3}
    - {fileID: 21300000, guid: f994abcd2b91aa24db9133716e0d19fa, type: 3}
    - {fileID: 21300000, guid: 56c684de0c14ca14b83782fd2e6306d9, type: 3}
  m_AnimationClipSettings:
    serializedVersion: 2
    m_AdditiveReferencePoseClip: {fileID: 0}
    m_AdditiveReferencePoseTime: 0
    m_StartTime: 0
    m_StopTime: 2.3999999
    m_OrientationOffsetY: 0
    m_Level: 0
    m_CycleOffset: 0
    m_HasAdditiveReferencePose: 0
    m_LoopTime: 1
    m_LoopBlend: 0
    m_LoopBlendOrientation: 0
    m_LoopBlendPositionY: 0
    m_LoopBlendPositionXZ: 0
    m_KeepOriginalOrientation: 0
    m_KeepOriginalPositionY: 1
    m_KeepOriginalPositionXZ: 0
    m_HeightFromFeet: 0
    m_Mirror: 0
  m_EditorCurves: []
  m_EulerEditorCurves: []
  m_HasGenericRootTransform: 0
  m_HasMotionFloatCurves: 0
  m_Events: []
